{"count":27404,"next":"https://api.spaceflightnewsapi.net/v4/articles/?limit=10&offset=10","previous":null,"results":[{"id":30886,"title":"Biomass: from Europe to French Guiana","authors":[{"name":"ESA","socials":null}],"url":"https://www.esa.int/ESA_Multimedia/Videos/2025/04/Biomass_from_Europe_to_French_Guiana","image_url":"https://www.esa.int/var/esa/storage/images/esa_multimedia/videos/2025/04/biomass_from_europe_to_french_guiana/26680148-1-eng-GB/Biomass_from_Europe_to_French_Guiana_card_full.png","news_site":"ESA","summary":"ESA’s Biomass satellite has been at Europe’s Spaceport in French Guiana since early March, undergoing final preparations for launch aboard a Vega-C rocket. This timelapse video captures key stages of its journey — from its arrival in Kourou to its installation in the launch tower.","published_at":"2025-04-28T11:00:00Z","updated_at":"2025-04-28T10:50:14.539775Z","featured":false,"launches":[],"events":[]},{"id":30885,"title":"Data architecture is paramount for Golden Dome success — and the Department of Defense is not ready","authors":[{"name":"Rob Gordon and Damon Feltman","socials":null}],"url":"https://spacenews.com/data-architecture-is-paramount-for-golden-dome-success-and-the-department-of-defense-is-not-ready/","image_url":"https://i0.wp.com/spacenews.com/wp-content/uploads/2025/04/Omni-Golden-Dome-Graphic-scaled.png?fit=1024%2C615&quality=80&ssl=1","news_site":"SpaceNews","summary":"\nPresident Trump recognizes the grave threats posed by adversary ballistic and hypersonic missiles and has issued mandates for the Department of Defense to deploy a “Golden Dome” defense shield for […]\nThe post Data architecture is paramount for Golden Dome success — and the Department of Defense is not ready appeared first on SpaceNews.","published_at":"2025-04-28T10:00:00Z","updated_at":"2025-04-28T10:00:23.901667Z","featured":false,"launches":[],"events":[]},{"id":30884,"title":"Biomass poised for liftoff to unveil forest secrets","authors":[{"name":"ESA","socials":null}],"url":"https://www.esa.int/Applications/Observing_the_Earth/FutureEO/Biomass/Biomass_poised_for_liftoff_to_unveil_forest_secrets","image_url":"https://www.esa.int/var/esa/storage/images/esa_multimedia/images/2025/04/biomass_ready_for_liftoff/26675081-1-eng-GB/Biomass_ready_for_liftoff_card_full.jpg","news_site":"ESA","summary":"After years of careful design and preparation, ESA’s Earth Explorer Biomass satellite is set for launch tomorrow, 29 April at 11:15 CEST, aboard a Vega-C rocket from Europe’s Spaceport in French Guiana.","published_at":"2025-04-28T07:00:00Z","updated_at":"2025-04-28T08:53:35.564485Z","featured":false,"launches":[{"launch_id":"ccbd07da-d3c7-4b22-a5ee-cb190f6e06b0","provider":"Launch Library 2"}],"events":[]},{"id":30883,"title":"Armed services committees propose $150 billion funding boost for defense","authors":[{"name":"Sandra Erwin","socials":null}],"url":"https://spacenews.com/armed-services-committees-propose-150-billion-funding-boost-for-defense/","image_url":"https://i0.wp.com/spacenews.com/wp-content/uploads/2025/04/Capitol_7156280-scaled.jpg?fit=1024%2C683&quality=89&ssl=1","news_site":"SpaceNews","summary":"\nThe proposal includes $25 billion for the \"Golden Dome\" next-generation missile defense initiative, with about $15 billion allocated to satellites, sensors, space-base interceptors and  launch infrastructure.\nThe post Armed services committees propose $150 billion funding boost for defense appeared first on SpaceNews.","published_at":"2025-04-27T22:15:17Z","updated_at":"2025-04-27T22:20:14.631029Z","featured":false,"launches":[],"events":[]},{"id":30882,"title":"Long March 3B launches Tianlian-2 (05) satellite to boost space data relay network","authors":[{"name":"Andrew Jones","socials":null}],"url":"https://spacenews.com/long-march-3b-launches-tianlian-2-05-satellite-to-boost-space-data-relay-network/","image_url":"https://i0.wp.com/spacenews.com/wp-content/uploads/2025/04/Tianlian-2-05-CZ3B-XSLC-27april2025-CASC1.jpg?fit=1024%2C681&quality=89&ssl=1","news_site":"SpaceNews","summary":"China added a new satellite to its geostationary Tianlian data tracking and relay communications satellite series Sunday with its latest launch.\r\nThe post Long March 3B launches Tianlian-2 (05) satellite to boost space data relay network appeared first on SpaceNews.","published_at":"2025-04-27T22:09:37Z","updated_at":"2025-04-28T08:53:06.609415Z","featured":false,"launches":[{"launch_id":"361bd92a-4f69-42f4-b2e4-c5c76b61c030","provider":"Launch Library 2"}],"events":[]},{"id":30881,"title":"What’s Happening in Space Policy April 27-May 3, 2025","authors":[{"name":"Marcia Smith","socials":null}],"url":"https://spacepolicyonline.com/news/whats-happening-in-space-policy-april-27-may-3-2025/","image_url":"https://spacepolicyonline.com/wp-content/uploads/2025/04/Isaacman-Apr-9-25-hrg-NASA-2-300x213.jpg","news_site":"SpacePolicyOnline.com","summary":"Here is SpacePolicyOnline.com’s list of space policy events for the week of April 27-May 3, 2025 and any insight we can offer about them. The House and Senate are in […]","published_at":"2025-04-27T14:15:28Z","updated_at":"2025-04-27T14:20:15.658737Z","featured":false,"launches":[],"events":[]},{"id":30880,"title":"Astrotech wins $77.5 million contract to accelerate pre-launch satellite processing at Vandenberg","authors":[{"name":"Sandra Erwin","socials":null}],"url":"https://spacenews.com/astrotech-wins-77-5-million-contract-to-accelerate-pre-launch-satellite-processing-at-vandenberg/","image_url":"https://i0.wp.com/spacenews.com/wp-content/uploads/2025/04/51669109517_9ba05736c1_k-p-2000.jpg?fit=1024%2C768&quality=89&ssl=1","news_site":"SpaceNews","summary":"\nAstrotech, a Lockheed Martin subsidiary, is the primary provider of payload storage and satellite-processing services for spacecraft at both Eastern and Western ranges.\nThe post Astrotech wins $77.5 million contract to accelerate pre-launch satellite processing at Vandenberg appeared first on SpaceNews.","published_at":"2025-04-27T10:56:57Z","updated_at":"2025-04-27T11:00:16.313071Z","featured":false,"launches":[],"events":[]},{"id":30879,"title":"China to lend Chang’e-5 moon samples to U.S. universities","authors":[{"name":"Andrew Jones","socials":null}],"url":"https://spacenews.com/china-to-lend-change-5-moon-samples-to-u-s-universities/","image_url":"https://i0.wp.com/spacenews.com/wp-content/uploads/2020/12/CE5-panorama-scoop-arm-flag-med1.jpg?fit=1024%2C553&quality=89&ssl=1","news_site":"SpaceNews","summary":"China approved international requests, including from two U.S. universities, to borrow small portions of moon samples collected by its Chang’e-5 mission.\r\nThe post China to lend Chang’e-5 moon samples to U.S. universities appeared first on SpaceNews.","published_at":"2025-04-26T21:02:25Z","updated_at":"2025-04-28T08:52:58.412631Z","featured":false,"launches":[{"launch_id":"9828537e-e017-4f77-96b6-49799d439363","provider":"Launch Library 2"}],"events":[]},{"id":30878,"title":"Musk’s Possible Role in Meink, Isaacman Nominations Continues to Raise Concerns","authors":[{"name":"Marcia Smith","socials":null}],"url":"https://spacepolicyonline.com/news/musks-possible-role-in-meink-isaacman-nominations-continues-to-raise-concerns/","image_url":"https://spacepolicyonline.com/wp-content/uploads/2025/01/Troy-Meink-300x300.jpg","news_site":"SpacePolicyOnline.com","summary":"Troy Meink, President Trump’s nominee to be Secretary of the Air Force, reportedly told the Senate Armed Services Committee that SpaceX CEO Elon Musk sat in on his job interview […]","published_at":"2025-04-26T19:14:35Z","updated_at":"2025-04-26T19:20:18.946632Z","featured":false,"launches":[],"events":[]},{"id":30877,"title":"Firefly Alpha set to launch FLTA006 Message In A Booster mission","authors":[{"name":"Justin Davenport","socials":null}],"url":"https://www.nasaspaceflight.com/2025/04/firefly-flta006/","image_url":"https://www.nasaspaceflight.com/wp-content/uploads/2025/04/Gpbhx1EXgAAVO7C-scaled.jpeg","news_site":"NASASpaceflight","summary":"Firefly Aerospace is preparing its Alpha small satellite launcher for a flight from Vandenberg Space…\r\nThe post Firefly Alpha set to launch FLTA006 Message In A Booster mission appeared first on NASASpaceFlight.com.","published_at":"2025-04-26T18:45:06Z","updated_at":"2025-04-28T08:52:45.997997Z","featured":false,"launches":[{"launch_id":"d6dd6900-332e-4e9e-89b8-dfa4ba285822","provider":"Launch Library 2"}],"events":[]}]}
